module tomato-crawler

go 1.13

require (
	github.com/PuerkitoBio/goquery v1.5.1 // indirect
	github.com/andybalholm/cascadia v1.2.0 // indirect
	github.com/antchfx/htmlquery v1.2.3 // indirect
	github.com/antchfx/xmlquery v1.2.4 // indirect
	github.com/antchfx/xpath v1.1.9 // indirect
	github.com/gobwas/glob v0.2.3 // indirect
	github.com/gocolly/colly v1.2.0
	github.com/golang/protobuf v1.4.2 // indirect
	github.com/jawher/mow.cli v1.1.0 // indirect
	github.com/kennygrant/sanitize v1.2.4 // indirect
	github.com/saintfish/chardet v0.0.0-20120816061221-3af4cd4741ca // indirect
	github.com/temoto/robotstxt v1.1.1 // indirect
	github.com/urfave/cli v1.22.4
	github.com/urfave/cli/v2 v2.2.0 // indirect
	golang.org/x/net v0.0.0-20200602114024-627f9648deb9 // indirect
	golang.org/x/text v0.3.3 // indirect
	google.golang.org/appengine v1.6.6 // indirect
	google.golang.org/protobuf v1.24.0 // indirect
)
